Exploratory Data Analysis with Tidyverse Tools
…
#Joining
library(dplyr)
library(tidyverse)
Combined <- MVPs %>% full_join(NBA, by="Season")
Combined

## # A tibble: 50 x 13
##    Season MVP     Age    MP   PPG `FG%` Team   Wins Losses `Team PS/G`
##    <chr>  <chr> <dbl> <dbl> <dbl> <dbl> <chr> <dbl>  <dbl>       <dbl>
##  1 2018-… Gian…    24  32.8  27.7 0.578 MIL      60     22       118. 
##  2 2017-… Jame…    28  35.4  30.4 0.449 HOU      65     17       112. 
##  3 2016-… Russ…    28  34.6  31.6 0.425 OKC      47     35       107. 
##  4 2015-… Step…    27  34.2  30.1 0.504 GSW      73      9       115. 
##  5 2014-… Step…    26  32.7  23.8 0.487 GSW      67     15       110  
##  6 2013-… Kevi…    25  38.5  32   0.503 OKC      59     23       106. 
##  7 2012-… LeBr…    28  37.9  26.8 0.565 MIA      66     16       103. 
##  8 2011-… LeBr…    27  37.5  27.1 0.531 MIA      46     20        98.5
##  9 2010-… Derr…    22  37.4  25   0.445 CHI      62     20        98.6
## 10 2009-… LeBr…    25  39    29.7 0.503 CLE      61     21       102. 
## # … with 40 more rows, and 3 more variables: `Team PA/G` <dbl>, `Conference
## #   Standing` <dbl>, Champions <chr>
…
renames %>% summarize(sd_wins=sd(Wins), sd_losses=sd(Losses), 
              sd_TeamPSG=sd(Team_PSG), sd_TeamPAG=sd(Team_PAG),
              sd_CS=sd(Conference_Standing))

## # A tibble: 1 x 5
##   sd_wins sd_losses sd_TeamPSG sd_TeamPAG sd_CS
##     <dbl>     <dbl>      <dbl>      <dbl> <dbl>
## 1    7.67      6.76       6.81       6.57  1.31

renames %>% group_by(MVP,Team) %>% summarize(median_PPG=median(PPG), median_TeamPSG=median(Team_PSG))

## # A tibble: 31 x 4
## # Groups:   MVP [28]
##    MVP                   Team  median_PPG median_TeamPSG
##    <chr>                 <chr>      <dbl>          <dbl>
##  1 Allen Iverson         PHI         31.1           94.7
##  2 Bill Walton           POR         18.9          108. 
##  3 Bob McAdoo            BUF         34.5          108. 
##  4 Charles Barkley       PHO         25.6          113. 
##  5 Dave Cowens           BOS         20.5          113. 
##  6 David Robinson        SAS         27.6          107. 
##  7 Derrick Rose          CHI         25             98.6
##  8 Dirk Nowitzki         DAL         24.6          100  
##  9 Giannis Antetokounmpo MIL         27.7          118. 
## 10 Hakeem Olajuwon       HOU         27.3          101. 
## # … with 21 more rows
…
The first ggplot (scatterplot) shows that conference standings are worse when wins are lower for the season. It shows that higher wins occur when MVP average points per game are are between roughly 25 and 30, which shows that one player scoring all the points doesn’t necessarily lead to victories. Lower wins and lower conference standings also appear to occur when the MVP has a higher average points per game, further indicating that one individual scoring a high volume of points doesn’t always lead to wins and better conference standings.
The second ggplot (bar chart) displays MVP ages and their corresponding average win percentages along with the conditions of whether or not that specific age won the championship. The data doesn’t show any sort of correlation between MVP age and whether or not they were champions during their MVP season. The graph does show a slight postive correlation between champions and win percentage. In ages where their were both champions and none champions, win percentage is approximately 0.1 higher for the champions.
The third plot is the correlation heat map of numeric variables. There are not many variables that have high correlation between the NBA players and their respective NBA teams. Wins, losses, and win percentage are highly correlated but that is expected due to wins being dependent on losses and vice versa. Win percentage is highly correlated because it is calculated by the number of wins.

#Dimentionality Reduction
library(cluster)
renames

## # A tibble: 50 x 15
##    Season MVP     Age    MP   PPG FG_Pct Team   Wins Losses Team_PSG Team_PAG
##    <chr>  <chr> <dbl> <dbl> <dbl>  <dbl> <chr> <dbl>  <dbl>    <dbl>    <dbl>
##  1 2018-… Gian…    24  32.8  27.7  0.578 MIL      60     22    118.     109. 
##  2 2017-… Jame…    28  35.4  30.4  0.449 HOU      65     17    112.     104. 
##  3 2016-… Russ…    28  34.6  31.6  0.425 OKC      47     35    107.     106. 
##  4 2015-… Step…    27  34.2  30.1  0.504 GSW      73      9    115.     104. 
##  5 2014-… Step…    26  32.7  23.8  0.487 GSW      67     15    110       99.9
##  6 2013-… Kevi…    25  38.5  32    0.503 OKC      59     23    106.      99.8
##  7 2012-… LeBr…    28  37.9  26.8  0.565 MIA      66     16    103.      95  
##  8 2011-… LeBr…    27  37.5  27.1  0.531 MIA      46     20     98.5     92.5
##  9 2010-… Derr…    22  37.4  25    0.445 CHI      62     20     98.6     91.3
## 10 2009-… LeBr…    25  39    29.7  0.503 CLE      61     21    102.      95.6
## # … with 40 more rows, and 4 more variables: Conference_Standing <dbl>,
## #   Champions <chr>, Total_Team_Games <dbl>, Win_Pct <dbl>
…
